{
  "id": "",
  "awid": "583ebf71c50ed33d7c03dda9",
  "state": "active",
  "name": "Ou my Joke!",
  "categoryList": [
    {
      "id": "abc123",
      "name": "Blondýny"
    },
    {
      "id": "cde234",
      "name": "IT"
    },
    {
      "id": "efg345",
      "name": "Policajti"
    },
    {
      "id": "hij456",
      "name": "Technologie"
    },
    {
      "id": "ijk678",
      "name": "Žádaná kategorie s dlouhým názvem"
    }
  ],
  "authorizedProfileList": ["Authorities", "Executives"]
}
